dump.vcd
$version Generated by VerilatedVcd $end
$date Thu Nov 30 16:19:06 2023
 $end
$timescale   1ns $end

 $scope module TOP $end
  $var wire  1 U% clock $end
  $var wire  5 g& io_debug_read_address [4:0] $end
  $var wire 32 o& io_debug_read_data [31:0] $end
  $var wire  3 _& io_deviceSelect [2:0] $end
  $var wire 32 m% io_instruction [31:0] $end
  $var wire 32 e% io_instruction_address [31:0] $end
  $var wire  1 W& io_instruction_valid $end
  $var wire 32 u% io_memory_bundle_address [31:0] $end
  $var wire 32 O& io_memory_bundle_read_data [31:0] $end
  $var wire 32 }% io_memory_bundle_write_data [31:0] $end
  $var wire  1 '& io_memory_bundle_write_enable $end
  $var wire  1 /& io_memory_bundle_write_strobe_0 $end
  $var wire  1 7& io_memory_bundle_write_strobe_1 $end
  $var wire  1 ?& io_memory_bundle_write_strobe_2 $end
  $var wire  1 G& io_memory_bundle_write_strobe_3 $end
  $var wire  1 ]% reset $end
  $scope module Top $end
   $var wire  1 U% clock $end
   $var wire  1 U% cpu_clock $end
   $var wire  5 g& cpu_io_debug_read_address [4:0] $end
   $var wire 32 w& cpu_io_debug_read_data [31:0] $end
   $var wire 32 m% cpu_io_instruction [31:0] $end
   $var wire 32 g" cpu_io_instruction_address [31:0] $end
   $var wire  1 W& cpu_io_instruction_valid $end
   $var wire 32 + cpu_io_memory_bundle_address [31:0] $end
   $var wire 32 O& cpu_io_memory_bundle_read_data [31:0] $end
   $var wire 32 3 cpu_io_memory_bundle_write_data [31:0] $end
   $var wire  1 ; cpu_io_memory_bundle_write_enable $end
   $var wire  1 C cpu_io_memory_bundle_write_strobe_0 $end
   $var wire  1 K cpu_io_memory_bundle_write_strobe_1 $end
   $var wire  1 S cpu_io_memory_bundle_write_strobe_2 $end
   $var wire  1 [ cpu_io_memory_bundle_write_strobe_3 $end
   $var wire  1 ]% cpu_reset $end
   $var wire  5 g& io_debug_read_address [4:0] $end
   $var wire 32 o& io_debug_read_data [31:0] $end
   $var wire  3 _& io_deviceSelect [2:0] $end
   $var wire 32 m% io_instruction [31:0] $end
   $var wire 32 e% io_instruction_address [31:0] $end
   $var wire  1 W& io_instruction_valid $end
   $var wire 32 u% io_memory_bundle_address [31:0] $end
   $var wire 32 O& io_memory_bundle_read_data [31:0] $end
   $var wire 32 }% io_memory_bundle_write_data [31:0] $end
   $var wire  1 '& io_memory_bundle_write_enable $end
   $var wire  1 /& io_memory_bundle_write_strobe_0 $end
   $var wire  1 7& io_memory_bundle_write_strobe_1 $end
   $var wire  1 ?& io_memory_bundle_write_strobe_2 $end
   $var wire  1 G& io_memory_bundle_write_strobe_3 $end
   $var wire  1 ]% reset $end
   $scope module cpu $end
    $var wire  1 U% clock $end
    $var wire  1 U! ex_io_aluop1_source $end
    $var wire  1 ]! ex_io_aluop2_source $end
    $var wire 32 # ex_io_if_jump_address [31:0] $end
    $var wire  1 =! ex_io_if_jump_flag $end
    $var wire 32 M! ex_io_immediate [31:0] $end
    $var wire 32 E! ex_io_instruction [31:0] $end
    $var wire 32 g" ex_io_instruction_address [31:0] $end
    $var wire 32 }! ex_io_mem_alu_result [31:0] $end
    $var wire 32 -! ex_io_reg1_data [31:0] $end
    $var wire 32 5! ex_io_reg2_data [31:0] $end
    $var wire  1 U! id_io_ex_aluop1_source $end
    $var wire  1 ]! id_io_ex_aluop2_source $end
    $var wire 32 M! id_io_ex_immediate [31:0] $end
    $var wire 32 E! id_io_instruction [31:0] $end
    $var wire  1 e! id_io_memory_read_enable $end
    $var wire  1 m! id_io_memory_write_enable $end
    $var wire  5 k id_io_reg_write_address [4:0] $end
    $var wire  1 c id_io_reg_write_enable $end
    $var wire  5 { id_io_regs_reg1_read_address [4:0] $end
    $var wire  5 %! id_io_regs_reg2_read_address [4:0] $end
    $var wire  2 u! id_io_wb_reg_write_source [1:0] $end
    $var wire  1 U% inst_fetch_clock $end
    $var wire 32 E! inst_fetch_io_instruction [31:0] $end
    $var wire 32 g" inst_fetch_io_instruction_address [31:0] $end
    $var wire 32 m% inst_fetch_io_instruction_read_data [31:0] $end
    $var wire  1 W& inst_fetch_io_instruction_valid $end
    $var wire 32 # inst_fetch_io_jump_address_id [31:0] $end
    $var wire  1 =! inst_fetch_io_jump_flag_id $end
    $var wire  1 ]% inst_fetch_reset $end
    $var wire  5 g& io_debug_read_address [4:0] $end
    $var wire 32 w& io_debug_read_data [31:0] $end
    $var wire 32 m% io_instruction [31:0] $end
    $var wire 32 g" io_instruction_address [31:0] $end
    $var wire  1 W& io_instruction_valid $end
    $var wire 32 + io_memory_bundle_address [31:0] $end
    $var wire 32 O& io_memory_bundle_read_data [31:0] $end
    $var wire 32 3 io_memory_bundle_write_data [31:0] $end
    $var wire  1 ; io_memory_bundle_write_enable $end
    $var wire  1 C io_memory_bundle_write_strobe_0 $end
    $var wire  1 K io_memory_bundle_write_strobe_1 $end
    $var wire  1 S io_memory_bundle_write_strobe_2 $end
    $var wire  1 [ io_memory_bundle_write_strobe_3 $end
    $var wire 32 }! mem_io_alu_result [31:0] $end
    $var wire  3 '" mem_io_funct3 [2:0] $end
    $var wire 32 }! mem_io_memory_bundle_address [31:0] $end
    $var wire 32 O& mem_io_memory_bundle_read_data [31:0] $end
    $var wire 32 3 mem_io_memory_bundle_write_data [31:0] $end
    $var wire  1 ; mem_io_memory_bundle_write_enable $end
    $var wire  1 C mem_io_memory_bundle_write_strobe_0 $end
    $var wire  1 K mem_io_memory_bundle_write_strobe_1 $end
    $var wire  1 S mem_io_memory_bundle_write_strobe_2 $end
    $var wire  1 [ mem_io_memory_bundle_write_strobe_3 $end
    $var wire  1 e! mem_io_memory_read_enable $end
    $var wire  1 m! mem_io_memory_write_enable $end
    $var wire 32 5! mem_io_reg2_data [31:0] $end
    $var wire 32 !' mem_io_wb_memory_read_data [31:0] $end
    $var wire  1 U% regs_clock $end
    $var wire  5 g& regs_io_debug_read_address [4:0] $end
    $var wire 32 w& regs_io_debug_read_data [31:0] $end
    $var wire  5 { regs_io_read_address1 [4:0] $end
    $var wire  5 %! regs_io_read_address2 [4:0] $end
    $var wire 32 -! regs_io_read_data1 [31:0] $end
    $var wire 32 5! regs_io_read_data2 [31:0] $end
    $var wire  5 k regs_io_write_address [4:0] $end
    $var wire 32 s regs_io_write_data [31:0] $end
    $var wire  1 c regs_io_write_enable $end
    $var wire  1 ]% regs_reset $end
    $var wire  1 ]% reset $end
    $var wire 32 }! wb_io_alu_result [31:0] $end
    $var wire 32 g" wb_io_instruction_address [31:0] $end
    $var wire 32 !' wb_io_memory_read_data [31:0] $end
    $var wire 32 s wb_io_regs_write_data [31:0] $end
    $var wire  2 u! wb_io_regs_write_source [1:0] $end
    $scope module ex $end
     $var wire  4 ?" alu_ctrl_io_alu_funct [3:0] $end
     $var wire  3 '" alu_ctrl_io_funct3 [2:0] $end
     $var wire  7 W" alu_ctrl_io_funct7 [6:0] $end
     $var wire  7 /" alu_ctrl_io_opcode [6:0] $end
     $var wire  4 ?" alu_io_func [3:0] $end
     $var wire 32 G" alu_io_op1 [31:0] $end
     $var wire 32 O" alu_io_op2 [31:0] $end
     $var wire 32 }! alu_io_result [31:0] $end
     $var wire  3 '" funct3 [2:0] $end
     $var wire  1 U! io_aluop1_source $end
     $var wire  1 ]! io_aluop2_source $end
     $var wire 32 # io_if_jump_address [31:0] $end
     $var wire  1 =! io_if_jump_flag $end
     $var wire 32 M! io_immediate [31:0] $end
     $var wire 32 E! io_instruction [31:0] $end
     $var wire 32 g" io_instruction_address [31:0] $end
     $var wire 32 }! io_mem_alu_result [31:0] $end
     $var wire 32 -! io_reg1_data [31:0] $end
     $var wire 32 5! io_reg2_data [31:0] $end
     $var wire  7 /" opcode [6:0] $end
     $scope module alu $end
      $var wire  4 ?" io_func [3:0] $end
      $var wire 32 G" io_op1 [31:0] $end
      $var wire 32 O" io_op2 [31:0] $end
      $var wire 32 }! io_result [31:0] $end
     $upscope $end
     $scope module alu_ctrl $end
      $var wire  4 ?" io_alu_funct [3:0] $end
      $var wire  3 '" io_funct3 [2:0] $end
      $var wire  7 W" io_funct7 [6:0] $end
      $var wire  7 /" io_opcode [6:0] $end
     $upscope $end
    $upscope $end
    $scope module id $end
     $var wire  1 U! io_ex_aluop1_source $end
     $var wire  1 ]! io_ex_aluop2_source $end
     $var wire 32 M! io_ex_immediate [31:0] $end
     $var wire 32 E! io_instruction [31:0] $end
     $var wire  1 e! io_memory_read_enable $end
     $var wire  1 m! io_memory_write_enable $end
     $var wire  5 k io_reg_write_address [4:0] $end
     $var wire  1 c io_reg_write_enable $end
     $var wire  5 { io_regs_reg1_read_address [4:0] $end
     $var wire  5 %! io_regs_reg2_read_address [4:0] $end
     $var wire  2 u! io_wb_reg_write_source [1:0] $end
     $var wire  7 /" opcode [6:0] $end
     $var wire  5 k rd [4:0] $end
     $var wire  5 7" rs1 [4:0] $end
    $upscope $end
    $scope module inst_fetch $end
     $var wire  1 U% clock $end
     $var wire 32 E! io_instruction [31:0] $end
     $var wire 32 g" io_instruction_address [31:0] $end
     $var wire 32 m% io_instruction_read_data [31:0] $end
     $var wire  1 W& io_instruction_valid $end
     $var wire 32 # io_jump_address_id [31:0] $end
     $var wire  1 =! io_jump_flag_id $end
     $var wire 32 g" pc [31:0] $end
     $var wire  1 ]% reset $end
    $upscope $end
    $scope module mem $end
     $var wire 32 }! io_alu_result [31:0] $end
     $var wire  3 '" io_funct3 [2:0] $end
     $var wire 32 }! io_memory_bundle_address [31:0] $end
     $var wire 32 O& io_memory_bundle_read_data [31:0] $end
     $var wire 32 3 io_memory_bundle_write_data [31:0] $end
     $var wire  1 ; io_memory_bundle_write_enable $end
     $var wire  1 C io_memory_bundle_write_strobe_0 $end
     $var wire  1 K io_memory_bundle_write_strobe_1 $end
     $var wire  1 S io_memory_bundle_write_strobe_2 $end
     $var wire  1 [ io_memory_bundle_write_strobe_3 $end
     $var wire  1 e! io_memory_read_enable $end
     $var wire  1 m! io_memory_write_enable $end
     $var wire 32 5! io_reg2_data [31:0] $end
     $var wire 32 !' io_wb_memory_read_data [31:0] $end
     $var wire  2 _" mem_address_index [1:0] $end
    $upscope $end
    $scope module regs $end
     $var wire  1 U% clock $end
     $var wire  5 g& io_debug_read_address [4:0] $end
     $var wire 32 w& io_debug_read_data [31:0] $end
     $var wire  5 { io_read_address1 [4:0] $end
     $var wire  5 %! io_read_address2 [4:0] $end
     $var wire 32 -! io_read_data1 [31:0] $end
     $var wire 32 5! io_read_data2 [31:0] $end
     $var wire  5 k io_write_address [4:0] $end
     $var wire 32 s io_write_data [31:0] $end
     $var wire  1 c io_write_enable $end
     $var wire 32 o" registers_0 [31:0] $end
     $var wire 32 w" registers_1 [31:0] $end
     $var wire 32 a# registers_10 [31:0] $end
     $var wire 32 i# registers_11 [31:0] $end
     $var wire 32 q# registers_12 [31:0] $end
     $var wire 32 y# registers_13 [31:0] $end
     $var wire 32 #$ registers_14 [31:0] $end
     $var wire 32 +$ registers_15 [31:0] $end
     $var wire 32 3$ registers_16 [31:0] $end
     $var wire 32 ;$ registers_17 [31:0] $end
     $var wire 32 C$ registers_18 [31:0] $end
     $var wire 32 K$ registers_19 [31:0] $end
     $var wire 32 !# registers_2 [31:0] $end
     $var wire 32 S$ registers_20 [31:0] $end
     $var wire 32 [$ registers_21 [31:0] $end
     $var wire 32 c$ registers_22 [31:0] $end
     $var wire 32 k$ registers_23 [31:0] $end
     $var wire 32 s$ registers_24 [31:0] $end
     $var wire 32 {$ registers_25 [31:0] $end
     $var wire 32 %% registers_26 [31:0] $end
     $var wire 32 -% registers_27 [31:0] $end
     $var wire 32 5% registers_28 [31:0] $end
     $var wire 32 =% registers_29 [31:0] $end
     $var wire 32 )# registers_3 [31:0] $end
     $var wire 32 E% registers_30 [31:0] $end
     $var wire 32 M% registers_31 [31:0] $end
     $var wire 32 1# registers_4 [31:0] $end
     $var wire 32 9# registers_5 [31:0] $end
     $var wire 32 A# registers_6 [31:0] $end
     $var wire 32 I# registers_7 [31:0] $end
     $var wire 32 Q# registers_8 [31:0] $end
     $var wire 32 Y# registers_9 [31:0] $end
     $var wire  1 ]% reset $end
    $upscope $end
    $scope module wb $end
     $var wire 32 }! io_alu_result [31:0] $end
     $var wire 32 g" io_instruction_address [31:0] $end
     $var wire 32 !' io_memory_read_data [31:0] $end
     $var wire 32 s io_regs_write_data [31:0] $end
     $var wire  2 u! io_regs_write_source [1:0] $end
    $upscope $end
   $upscope $end
  $upscope $end
 $upscope $end
$enddefinitions $end


#0
b00000000000000000000000000000000 #
b00000000000000000000000000000000 +
b00000000000000000000000000000000 3
0;
0C
0K
0S
0[
1c
b00000 k
b00000000000000000000000000000000 s
b00000 {
b00000 %!
b00000000000000000000000000000000 -!
b00000000000000000000000000000000 5!
0=!
b00000000000000000000000000010011 E!
b00000000000000000000000000000000 M!
0U!
1]!
0e!
0m!
b00 u!
b00000000000000000000000000000000 }!
b000 '"
b0010011 /"
b00000 7"
b0001 ?"
b00000000000000000000000000000000 G"
b00000000000000000000000000000000 O"
b0000000 W"
b00 _"
b00000000000000000000000000000000 g"
b00000000000000000000000000000000 o"
b00000000000000000000000000000000 w"
b00000000000000000000000000000000 !#
b00000000000000000000000000000000 )#
b00000000000000000000000000000000 1#
b00000000000000000000000000000000 9#
b00000000000000000000000000000000 A#
b00000000000000000000000000000000 I#
b00000000000000000000000000000000 Q#
b00000000000000000000000000000000 Y#
b00000000000000000000000000000000 a#
b00000000000000000000000000000000 i#
b00000000000000000000000000000000 q#
b00000000000000000000000000000000 y#
b00000000000000000000000000000000 #$
b00000000000000000000000000000000 +$
b00000000000000000000000000000000 3$
b00000000000000000000000000000000 ;$
b00000000000000000000000000000000 C$
b00000000000000000000000000000000 K$
b00000000000000000000000000000000 S$
b00000000000000000000000000000000 [$
b00000000000000000000000000000000 c$
b00000000000000000000000000000000 k$
b00000000000000000000000000000000 s$
b00000000000000000000000000000000 {$
b00000000000000000000000000000000 %%
b00000000000000000000000000000000 -%
b00000000000000000000000000000000 5%
b00000000000000000000000000000000 =%
b00000000000000000000000000000000 E%
b00000000000000000000000000000000 M%
0U%
1]%
b00000000000000000000000000000000 e%
b00000000000000000000000000000000 m%
b00000000000000000000000000000000 u%
b00000000000000000000000000000000 }%
0'&
0/&
07&
0?&
0G&
b00000000000000000000000000000000 O&
0W&
b000 _&
b00000 g&
b00000000000000000000000000000000 o&
b00000000000000000000000000000000 w&
b00000000000000000000000000000000 !'
#1
b00000000000000000001000000000000 #
0c
b00000000000000000000000000000000 E!
b0000000 /"
b0000 ?"
b00000000000000000001000000000000 g"
1U%
b00000000000000000001000000000000 e%
1W&
#2
b00000000000000000001000000000100 #
b00000000000000000000000000000100 +
1c
b10110 k
b00000000000000000000000000000100 s
b00100 %!
b00000000010000000000101100010011 E!
b00000000000000000000000000000100 M!
b00000000000000000000000000000100 }!
b0010011 /"
b0001 ?"
b00000000000000000000000000000100 O"
b00000000010000000000101100010011 m%
b00000000000000000000000000000100 u%
#3
0U%
0]%
#4
#5
b00000000000000000001000000001000 #
b00000000000000000001000000000100 g"
b00000000000000000000000000000100 c$
1U%
b00000000000000000001000000000100 e%
#6
b00000000000000000001000000000100 #
b00000000000000000001000000000100 +
b01000 k
b00000000000000000001000000000100 s
b00000 %!
b00000000000000000000010000010111 E!
b00000000000000000000000000000000 M!
1U!
b00000000000000000001000000000100 }!
b0010111 /"
b00000000000000000001000000000100 G"
b00000000000000000000000000000000 O"
b00000000000000000000010000010111 m%
b00000000000000000001000000000100 u%
#7
0U%
b00000000000000000000010000010111 O&
#8
#9
b00000000000000000001000000001000 #
b00000000000000000001000000001000 +
b00000000000000000001000000001000 s
b00000000000000000001000000001000 }!
b00000000000000000001000000001000 G"
b00000000000000000001000000001000 g"
b00000000000000000001000000000100 Q#
1U%
b00000000000000000001000000001000 e%
b00000000000000000001000000001000 u%
#10
b00000000000000000001000010111000 #
b00000000000000000001000010110100 +
b00000000000000000001000010110100 s
b01000 {
b10000 %!
b00000000000000000001000000000100 -!
b00001011000001000000010000010011 E!
b00000000000000000000000010110000 M!
0U!
b00000000000000000001000010110100 }!
b0010011 /"
b01000 7"
b00000000000000000001000000000100 G"
b00000000000000000000000010110000 O"
b0000101 W"
b00001011000001000000010000010011 m%
b00000000000000000001000010110100 u%
b00001011000001000000010000010011 O&
#11
0U%
b00000000000000000001000100000001 O&
#12
#13
b00000000000000000001000010111100 #
b00000000000000000001000101100100 +
b00000000000000000001000101100100 s
b00000000000000000001000010110100 -!
b00000000000000000001000101100100 }!
b00000000000000000001000010110100 G"
b00000000000000000001000000001100 g"
b00000000000000000001000010110100 Q#
1U%
b00000000000000000001000000001100 e%
b00000000000000000001000101100100 u%
#14
b00000000000000000001000000001100 #
b00000000000000000001000010110100 +
b01010 k
b00000000000000000000000000000000 s
b00000 %!
b00000000000001000010010100000011 E!
b00000000000000000000000000000000 M!
1e!
b01 u!
b00000000000000000001000010110100 }!
b010 '"
b0000011 /"
b00000000000000000000000000000000 O"
b0000000 W"
b00000000000001000010010100000011 m%
b00000000000000000001000010110100 u%
b00000000000000000000000000000000 O&
#15
b00000000000000000001000100000001 s
0U%
b00000000000000000001000100000001 O&
b00000000000000000001000100000001 !'
#16
#17
b00000000000000000001000000010000 #
b00000000000000000001000000010000 g"
b00000000000000000001000100000001 a#
1U%
b00000000000000000001000000010000 e%
#18
b00000000000000000001000000011010 #
b00000000000000000001000100000001 +
b01000 k
b00000 {
b01010 %!
b00000000000000000000000000000000 -!
b00000000000000000001000100000001 5!
b00000000101000000000010000110011 E!
b00000000000000000000000000001010 M!
0]!
0e!
b00 u!
b00000000000000000001000100000001 }!
b000 '"
b0110011 /"
b00000 7"
b00000000000000000000000000000000 G"
b00000000000000000001000100000001 O"
b01 _"
b00000000101000000000010000110011 m%
b00000000000000000001000100000001 u%
b00000000000000000000000000000000 !'
#19
0U%
b00000000000000000000000000000000 O&
#20
#21
b00000000000000000001000000011110 #
b00000000000000000001000000010100 g"
b00000000000000000001000100000001 Q#
1U%
b00000000000000000001000000010100 e%
#22
b00000000000000000001000000010101 #
b00000000000000000000100010000000 +
b00101 k
b00000000000000000000100010000000 s
b01000 {
b00001 %!
b00000000000000000001000100000001 -!
b00000000000000000000000000000000 5!
b00000000000101000101001010010011 E!
b00000000000000000000000000000001 M!
1]!
b00000000000000000000100010000000 }!
b101 '"
b0010011 /"
b01000 7"
b1000 ?"
b00000000000000000001000100000001 G"
b00000000000000000000000000000001 O"
b00 _"
b00000000000101000101001010010011 m%
b00000000000000000000100010000000 u%
#23
0U%
#24
#25
b00000000000000000001000000011001 #
b00000000000000000001000000011000 g"
b00000000000000000000100010000000 9#
1U%
b00000000000000000001000000011000 e%
#26
b00000000000000000001000000011101 #
b00000000000000000001100110000001 +
b01000 k
b00000000000000000001100110000001 s
b00101 %!
b00000000000000000000100010000000 5!
b00000000010101000110010000110011 E!
b00000000000000000000000000000101 M!
0]!
b00000000000000000001100110000001 }!
b110 '"
b0110011 /"
b0110 ?"
b00000000000000000000100010000000 O"
b01 _"
b00000000010101000110010000110011 m%
b00000000000000000001100110000001 u%
#27
0U%
#28
#29
b00000000000000000001000000100001 #
b00000000000000000001100110000001 -!
b00000000000000000001100110000001 G"
b00000000000000000001000000011100 g"
b00000000000000000001100110000001 Q#
1U%
b00000000000000000001000000011100 e%
#30
b00000000000000000001000000011110 #
b00000000000000000000011001100000 +
b00101 k
b00000000000000000000011001100000 s
b00010 %!
b00000000000000000000000000000000 5!
b00000000001001000101001010010011 E!
b00000000000000000000000000000010 M!
1]!
b00000000000000000000011001100000 }!
b101 '"
b0010011 /"
b1000 ?"
b00000000000000000000000000000010 O"
b00 _"
b00000000001001000101001010010011 m%
b00000000000000000000011001100000 u%
#31
0U%
#32
#33
b00000000000000000001000000100010 #
b00000000000000000001000000100000 g"
b00000000000000000000011001100000 9#
1U%
b00000000000000000001000000100000 e%
#34
b00000000000000000001000000100101 #
b00000000000000000001111111100001 +
b01000 k
b00000000000000000001111111100001 s
b00101 %!
b00000000000000000000011001100000 5!
b00000000010101000110010000110011 E!
b00000000000000000000000000000101 M!
0]!
b00000000000000000001111111100001 }!
b110 '"
b0110011 /"
b0110 ?"
b00000000000000000000011001100000 O"
b01 _"
b00000000010101000110010000110011 m%
b00000000000000000001111111100001 u%
#35
0U%
#36
#37
b00000000000000000001000000101001 #
b00000000000000000001111111100001 -!
b00000000000000000001111111100001 G"
b00000000000000000001000000100100 g"
b00000000000000000001111111100001 Q#
1U%
b00000000000000000001000000100100 e%
#38
b00000000000000000001000000101000 #
b00000000000000000000000111111110 +
b00101 k
b00000000000000000000000111111110 s
b00100 %!
b00000000000000000000000000000000 5!
b00000000010001000101001010010011 E!
b00000000000000000000000000000100 M!
1]!
b00000000000000000000000111111110 }!
b101 '"
b0010011 /"
b1000 ?"
b00000000000000000000000000000100 O"
b10 _"
b00000000010001000101001010010011 m%
b00000000000000000000000111111110 u%
#39
0U%
#40
#41
b00000000000000000001000000101100 #
b00000000000000000001000000101000 g"
b00000000000000000000000111111110 9#
1U%
b00000000000000000001000000101000 e%
#42
b00000000000000000001000000101101 #
b00000000000000000001111111111111 +
b01000 k
b00000000000000000001111111111111 s
b00101 %!
b00000000000000000000000111111110 5!
b00000000010101000110010000110011 E!
b00000000000000000000000000000101 M!
0]!
b00000000000000000001111111111111 }!
b110 '"
b0110011 /"
b0110 ?"
b00000000000000000000000111111110 O"
b11 _"
b00000000010101000110010000110011 m%
b00000000000000000001111111111111 u%
#43
0U%
#44
#45
b00000000000000000001000000110001 #
b00000000000000000001111111111111 -!
b00000000000000000001111111111111 G"
b00000000000000000001000000101100 g"
b00000000000000000001111111111111 Q#
1U%
b00000000000000000001000000101100 e%
#46
b00000000000000000001000000110100 #
b00000000000000000000000000011111 +
b00101 k
b00000000000000000000000000011111 s
b01000 %!
b00000000000000000001111111111111 5!
b00000000100001000101001010010011 E!
b00000000000000000000000000001000 M!
1]!
b00000000000000000000000000011111 }!
b101 '"
b0010011 /"
b1000 ?"
b00000000000000000000000000001000 O"
b00000000100001000101001010010011 m%
b00000000000000000000000000011111 u%
#47
0U%
#48
#49
b00000000000000000001000000111000 #
b00000000000000000001000000110000 g"
b00000000000000000000000000011111 9#
1U%
b00000000000000000001000000110000 e%
#50
b00000000000000000001000000110101 #
b00000000000000000001111111111111 +
b01000 k
b00000000000000000001111111111111 s
b00101 %!
b00000000000000000000000000011111 5!
b00000000010101000110010000110011 E!
b00000000000000000000000000000101 M!
0]!
b00000000000000000001111111111111 }!
b110 '"
b0110011 /"
b0110 ?"
b00000000000000000000000000011111 O"
b00000000010101000110010000110011 m%
b00000000000000000001111111111111 u%
#51
0U%
#52
#53
b00000000000000000001000000111001 #
b00000000000000000001000000110100 g"
1U%
b00000000000000000001000000110100 e%
#54
b00000000000000000001000001000100 #
b00000000000000000000000000000000 +
b00101 k
b00000000000000000000000000000000 s
b10000 %!
b00000000000000000000000000000000 5!
b00000001000001000101001010010011 E!
b00000000000000000000000000010000 M!
1]!
b00000000000000000000000000000000 }!
b101 '"
b0010011 /"
b1000 ?"
b00000000000000000000000000010000 O"
b00 _"
b00000001000001000101001010010011 m%
b00000000000000000000000000000000 u%
#55
0U%
#56
#57
b00000000000000000001000001001000 #
b00000000000000000001000000111000 g"
b00000000000000000000000000000000 9#
1U%
b00000000000000000001000000111000 e%
#58
b00000000000000000001000000111101 #
b00000000000000000001111111111111 +
b01000 k
b00000000000000000001111111111111 s
b00101 %!
b00000000010101000110010000110011 E!
b00000000000000000000000000000101 M!
0]!
b00000000000000000001111111111111 }!
b110 '"
b0110011 /"
b0110 ?"
b00000000000000000000000000000000 O"
b11 _"
b00000000010101000110010000110011 m%
b00000000000000000001111111111111 u%
#59
0U%
#60
#61
b00000000000000000001000001000001 #
b00000000000000000001000000111100 g"
1U%
b00000000000000000001000000111100 e%
#62
b01010101010101010110000000111100 #
b00010101010101010101000000000000 +
b00110 k
b01010101010101010101000000000000 s
b00000 {
b10101 %!
b00000000000000000000000000000000 -!
b01010101010101010101001100110111 E!
b01010101010101010101000000000000 M!
1]!
b01010101010101010101000000000000 }!
b101 '"
b0110111 /"
b01010 7"
b0001 ?"
b00000000000000000000000000000000 G"
b01010101010101010101000000000000 O"
b0101010 W"
b00 _"
b01010101010101010101001100110111 m%
b00010101010101010101000000000000 u%
#63
0U%
#64
#65
b01010101010101010110000001000000 #
b00000000000000000001000001000000 g"
b01010101010101010101000000000000 A#
1U%
b00000000000000000001000001000000 e%
#66
b00000000000000000001010110010101 #
b00010101010101010101010101010101 +
b01010101010101010101010101010101 s
b00110 {
b01010101010101010101000000000000 -!
b01010101010100110000001100010011 E!
b00000000000000000000010101010101 M!
b01010101010101010101010101010101 }!
b000 '"
b0010011 /"
b00110 7"
b01010101010101010101000000000000 G"
b00000000000000000000010101010101 O"
b01 _"
b01010101010100110000001100010011 m%
b00010101010101010101010101010101 u%
#67
0U%
#68
#69
b00000000000000000001010110011001 #
b00010101010101010101101010101010 +
b01010101010101010101101010101010 s
b01010101010101010101010101010101 -!
b01010101010101010101101010101010 }!
b01010101010101010101010101010101 G"
b10 _"
b00000000000000000001000001000100 g"
b01010101010101010101010101010101 A#
1U%
b00000000000000000001000001000100 e%
b00010101010101010101101010101010 u%
#70
b00000000000000000001000001000101 #
b00000000000000000000111111111111 +
b00101 k
b00000000000000000000111111111111 s
b01000 {
b00001 %!
b00000000000000000001111111111111 -!
b00000000000101000101001010010011 E!
b00000000000000000000000000000001 M!
b00000000000000000000111111111111 }!
b101 '"
b01000 7"
b1000 ?"
b00000000000000000001111111111111 G"
b00000000000000000000000000000001 O"
b0000000 W"
b11 _"
b00000000000101000101001010010011 m%
b00000000000000000000111111111111 u%
#71
0U%
#72
#73
b00000000000000000001000001001001 #
b00000000000000000001000001001000 g"
b00000000000000000000111111111111 9#
1U%
b00000000000000000001000001001000 e%
#74
b00000000000000000001000001001110 #
b00000000000000000000010101010101 +
b00000000000000000000010101010101 s
b00101 {
b00110 %!
b00000000000000000000111111111111 -!
b01010101010101010101010101010101 5!
b00000000011000101111001010110011 E!
b00000000000000000000000000000110 M!
0]!
b00000000000000000000010101010101 }!
b111 '"
b0110011 /"
b00101 7"
b0111 ?"
b00000000000000000000111111111111 G"
b01010101010101010101010101010101 O"
b01 _"
b00000000011000101111001010110011 m%
b00000000000000000000010101010101 u%
#75
0U%
#76
#77
b00000000000000000001000001010010 #
b00000000000000000000010101010101 -!
b00000000000000000000010101010101 G"
b00000000000000000001000001001100 g"
b00000000000000000000010101010101 9#
1U%
b00000000000000000001000001001100 e%
#78
b00000000000000000001010001010001 #
b00000000000000000001101010101010 +
b01000 k
b00000000000000000001101010101010 s
b01000 {
b00101 %!
b00000000000000000001111111111111 -!
b00000000000000000000010101010101 5!
b01000000010101000000010000110011 E!
b00000000000000000000010000000101 M!
b00000000000000000001101010101010 }!
b000 '"
b01000 7"
b0010 ?"
b00000000000000000001111111111111 G"
b00000000000000000000010101010101 O"
b0100000 W"
b10 _"
b01000000010101000000010000110011 m%
b00000000000000000001101010101010 u%
#79
0U%
#80
#81
b00000000000000000001010001010101 #
b00000000000000000001010101010101 +
b00000000000000000001010101010101 s
b00000000000000000001101010101010 -!
b00000000000000000001010101010101 }!
b00000000000000000001101010101010 G"
b01 _"
b00000000000000000001000001010000 g"
b00000000000000000001101010101010 Q#
1U%
b00000000000000000001000001010000 e%
b00000000000000000001010101010101 u%
#82
b00110011001100110100000001010000 #
b00010011001100110011000000000000 +
b00110 k
b00110011001100110011000000000000 s
b00000 {
b10011 %!
b00000000000000000000000000000000 -!
b00000000000000000000000000000000 5!
b00110011001100110011001100110111 E!
b00110011001100110011000000000000 M!
1]!
b00110011001100110011000000000000 }!
b011 '"
b0110111 /"
b00110 7"
b0001 ?"
b00000000000000000000000000000000 G"
b00110011001100110011000000000000 O"
b0011001 W"
b00 _"
b00110011001100110011001100110111 m%
b00010011001100110011000000000000 u%
#83
0U%
#84
#85
b00110011001100110100000001010100 #
b00000000000000000001000001010100 g"
b00110011001100110011000000000000 A#
1U%
b00000000000000000001000001010100 e%
#86
b00000000000000000001001110000111 #
b00010011001100110011001100110011 +
b00110011001100110011001100110011 s
b00110 {
b00110011001100110011000000000000 -!
b00110011001100110000001100010011 E!
b00000000000000000000001100110011 M!
b00110011001100110011001100110011 }!
b000 '"
b0010011 /"
b00110011001100110011000000000000 G"
b00000000000000000000001100110011 O"
b11 _"
b00110011001100110000001100010011 m%
b00010011001100110011001100110011 u%
#87
0U%
#88
#89
b00000000000000000001001110001011 #
b00010011001100110011011001100110 +
b00110011001100110011011001100110 s
b00110011001100110011001100110011 -!
b00110011001100110011011001100110 }!
b00110011001100110011001100110011 G"
b10 _"
b00000000000000000001000001011000 g"
b00110011001100110011001100110011 A#
1U%
b00000000000000000001000001011000 e%
b00010011001100110011011001100110 u%
#90
b00000000000000000001000001011010 #
b00000000000000000000011010101010 +
b00101 k
b00000000000000000000011010101010 s
b01000 {
b00010 %!
b00000000000000000001101010101010 -!
b00000000001001000101001010010011 E!
b00000000000000000000000000000010 M!
b00000000000000000000011010101010 }!
b101 '"
b01000 7"
b1000 ?"
b00000000000000000001101010101010 G"
b00000000000000000000000000000010 O"
b0000000 W"
b00000000001001000101001010010011 m%
b00000000000000000000011010101010 u%
#91
0U%
#92
#93
b00000000000000000001000001011110 #
b00000000000000000001000001011100 g"
b00000000000000000000011010101010 9#
1U%
b00000000000000000001000001011100 e%
